<svg width="767" height="459" viewBox="0 0 767 459" fill="none" xmlns="http://www.w3.org/2000/svg">
<rect opacity="0.5" x="-0.5" y="0.5" width="191" height="458" stroke="#00B7FF" stroke-opacity="0.15"/>
<rect opacity="0.5" x="383.5" y="0.5" width="191" height="458" stroke="#00B7FF" stroke-opacity="0.15"/>
<rect opacity="0.5" x="575.5" y="0.5" width="191" height="458" stroke="#00B7FF" stroke-opacity="0.15"/>
<rect opacity="0.5" x="191.5" y="0.5" width="191" height="458" stroke="#00B7FF" stroke-opacity="0.15"/>
</svg>
